{
  "project_info": {
    "project_number": "1023314859782",
    "firebase_url": "https://chat-app-6ddef.firebaseio.com",
    "project_id": "chat-app-6ddef",
    "storage_bucket": "chat-app-6ddef.appspot.com"
  },
  "client": [
    {
      "client_info": {
        "mobilesdk_app_id": "1:1023314859782:android:17b141984e8a0c21",
        "android_client_info": {
          "package_name": "com.example.coolermaster.projet2016"
        }
      },
      "oauth_client": [
        {
          "client_id": "1023314859782-rk94lo1dfcpktstm3eaok1q9q084oppa.apps.googleusercontent.com",
          "client_type": 3
        }
      ],
      "api_key": [
        {
          "current_key": "AIzaSyAJBkx4WI1yoQloq_uJhbKsjKRNy3tch8g"
        }
      ],
      "services": {
        "analytics_service": {
          "status": 1
        },
        "appinvite_service": {
          "status": 1,
          "other_platform_oauth_client": []
        },
        "ads_service": {
          "status": 2
        }
      }
    }
  ],
  "configuration_version": "1"
}